module gitlab.com/gitlab-org/cluster-integration/gitlab-agent/v16

go 1.20

require (
	cloud.google.com/go/profiler v0.4.0
	github.com/ash2k/stager v0.3.0
	github.com/bmatcuk/doublestar/v2 v2.0.4
	github.com/envoyproxy/protoc-gen-validate v1.0.2
	github.com/fluxcd/notification-controller/api v1.0.0
	github.com/fluxcd/pkg/apis/meta v1.1.2
	github.com/fluxcd/source-controller/api v1.0.1
	github.com/getsentry/sentry-go v0.25.0
	github.com/go-logr/zapr v1.3.0
	github.com/golang-jwt/jwt/v5 v5.1.0
	github.com/google/go-cmp v0.6.0
	github.com/grpc-ecosystem/go-grpc-middleware/providers/prometheus v1.0.0
	github.com/grpc-ecosystem/go-grpc-middleware/v2 v2.0.1
	github.com/hashicorp/go-retryablehttp v0.7.5
	github.com/prometheus/client_golang v1.17.0
	github.com/redis/rueidis v1.0.22
	github.com/robfig/cron/v3 v3.0.1
	github.com/spf13/cobra v1.8.0
	github.com/stretchr/testify v1.8.4
	gitlab.com/gitlab-org/security-products/analyzers/report/v3 v3.7.1
	go.opentelemetry.io/contrib/instrumentation/google.golang.org/grpc/otelgrpc v0.46.1
	go.opentelemetry.io/contrib/instrumentation/net/http/otelhttp v0.46.1
	go.opentelemetry.io/otel v1.21.0
	go.opentelemetry.io/otel/exporters/otlp/otlptrace/otlptracehttp v1.21.0
	go.opentelemetry.io/otel/exporters/prometheus v0.44.0
	go.opentelemetry.io/otel/metric v1.21.0
	go.opentelemetry.io/otel/sdk v1.21.0
	go.opentelemetry.io/otel/sdk/metric v1.21.0
	go.opentelemetry.io/otel/trace v1.21.0
	// Make sure to update build/mockgen.sh when updating
	go.uber.org/mock v0.3.0
	go.uber.org/zap v1.26.0
	golang.org/x/net v0.18.0 // indirect
	golang.org/x/sync v0.5.0
	golang.org/x/time v0.4.0
	google.golang.org/api v0.151.0
	google.golang.org/genproto/googleapis/rpc v0.0.0-20231106174013-bbf56f31fb17
	google.golang.org/grpc v1.59.0
	google.golang.org/protobuf v1.31.0
	k8s.io/api v0.27.2
	k8s.io/apiextensions-apiserver v0.27.2
	k8s.io/apimachinery v0.27.4
	k8s.io/apiserver v0.27.2
	k8s.io/cli-runtime v0.27.2
	k8s.io/client-go v0.27.2
	k8s.io/klog/v2 v2.100.1
	k8s.io/kubectl v0.27.2
	k8s.io/utils v0.0.0-20230726121419-3b25d923346b
	nhooyr.io/websocket v1.8.10
	sigs.k8s.io/cli-utils v0.35.1-0.20230809174950-0b156cb0425f
	sigs.k8s.io/controller-runtime v0.15.0
	sigs.k8s.io/yaml v1.4.0
)

require (
	cloud.google.com/go v0.110.9 // indirect
	cloud.google.com/go/compute v1.23.2 // indirect
	cloud.google.com/go/compute/metadata v0.2.3 // indirect
	github.com/Azure/go-ansiterm v0.0.0-20210617225240-d185dfc1b5a1 // indirect
	github.com/MakeNowJust/heredoc v1.0.0 // indirect
	github.com/beorn7/perks v1.0.1 // indirect
	github.com/cenkalti/backoff/v4 v4.2.1 // indirect
	github.com/cespare/xxhash/v2 v2.2.0 // indirect
	github.com/chai2010/gettext-go v1.0.2 // indirect
	github.com/davecgh/go-spew v1.1.1 // indirect
	github.com/emicklei/go-restful/v3 v3.10.1 // indirect
	github.com/evanphx/json-patch v5.6.0+incompatible // indirect
	github.com/evanphx/json-patch/v5 v5.6.0 // indirect
	github.com/exponent-io/jsonpath v0.0.0-20151013193312-d6023ce2651d // indirect
	github.com/fatih/camelcase v1.0.0 // indirect
	github.com/felixge/httpsnoop v1.0.4 // indirect
	github.com/fvbommel/sortorder v1.0.1 // indirect
	github.com/go-errors/errors v1.4.2 // indirect
	github.com/go-logr/logr v1.3.0 // indirect
	github.com/go-logr/stdr v1.2.2 // indirect
	github.com/go-openapi/jsonpointer v0.19.6 // indirect
	github.com/go-openapi/jsonreference v0.20.1 // indirect
	github.com/go-openapi/swag v0.22.3 // indirect
	github.com/gogo/protobuf v1.3.2 // indirect
	github.com/golang/groupcache v0.0.0-20210331224755-41bb18bfe9da // indirect
	github.com/golang/protobuf v1.5.3 // indirect
	github.com/google/btree v1.0.1 // indirect
	github.com/google/gnostic v0.5.7-v3refs // indirect
	github.com/google/gofuzz v1.2.0 // indirect
	github.com/google/pprof v0.0.0-20230602150820-91b7bce49751 // indirect
	github.com/google/s2a-go v0.1.7 // indirect
	github.com/google/shlex v0.0.0-20191202100458-e7afc7fbc510 // indirect
	github.com/google/uuid v1.4.0 // indirect
	github.com/googleapis/enterprise-certificate-proxy v0.3.2 // indirect
	github.com/googleapis/gax-go/v2 v2.12.0 // indirect
	github.com/gregjones/httpcache v0.0.0-20180305231024-9cad4c3443a7 // indirect
	github.com/grpc-ecosystem/grpc-gateway/v2 v2.16.0 // indirect
	github.com/hashicorp/go-cleanhttp v0.5.2 // indirect
	github.com/imdario/mergo v0.3.13 // indirect
	github.com/inconshreveable/mousetrap v1.1.0 // indirect
	github.com/jonboulle/clockwork v0.2.2 // indirect
	github.com/josharian/intern v1.0.0 // indirect
	github.com/json-iterator/go v1.1.12 // indirect
	github.com/liggitt/tabwriter v0.0.0-20181228230101-89fcab3d43de // indirect
	github.com/mailru/easyjson v0.7.7 // indirect
	github.com/matttproud/golang_protobuf_extensions v1.0.4 // indirect
	github.com/mitchellh/go-wordwrap v1.0.0 // indirect
	github.com/moby/spdystream v0.2.0 // indirect
	github.com/moby/term v0.0.0-20221205130635-1aeaba878587 // indirect
	github.com/modern-go/concurrent v0.0.0-20180306012644-bacd9c7ef1dd // indirect
	github.com/modern-go/reflect2 v1.0.2 // indirect
	github.com/monochromegane/go-gitignore v0.0.0-20200626010858-205db1a8cc00 // indirect
	github.com/munnerz/goautoneg v0.0.0-20191010083416-a7dc8b61c822 // indirect
	github.com/pelletier/go-toml v1.9.5 // indirect
	github.com/peterbourgon/diskv v2.0.1+incompatible // indirect
	github.com/pkg/errors v0.9.1 // indirect
	github.com/pmezard/go-difflib v1.0.0 // indirect
	github.com/prometheus/client_model v0.5.0 // indirect
	github.com/prometheus/common v0.44.0 // indirect
	github.com/prometheus/procfs v0.11.1 // indirect
	github.com/russross/blackfriday/v2 v2.1.0 // indirect
	github.com/sirupsen/logrus v1.9.3 // indirect
	github.com/spf13/pflag v1.0.5 // indirect
	github.com/spyzhov/ajson v0.9.0 // indirect
	github.com/xlab/treeprint v1.1.0 // indirect
	gitlab.com/gitlab-org/security-products/analyzers/common/v2 v2.24.0 // indirect
	gitlab.com/gitlab-org/security-products/analyzers/ruleset v1.0.0 // indirect
	go.opencensus.io v0.24.0 // indirect
	go.opentelemetry.io/otel/exporters/otlp/otlptrace v1.21.0 // indirect
	go.opentelemetry.io/proto/otlp v1.0.0 // indirect
	go.starlark.net v0.0.0-20200306205701-8dd3e2ee1dd5 // indirect
	go.uber.org/multierr v1.10.0 // indirect
	golang.org/x/crypto v0.15.0 // indirect
	golang.org/x/oauth2 v0.13.0 // indirect
	golang.org/x/sys v0.14.0 // indirect
	golang.org/x/term v0.14.0 // indirect
	golang.org/x/text v0.14.0 // indirect
	google.golang.org/appengine v1.6.7 // indirect
	google.golang.org/genproto v0.0.0-20231030173426-d783a09b4405 // indirect
	google.golang.org/genproto/googleapis/api v0.0.0-20231016165738-49dd2c1f3d0b // indirect
	gopkg.in/inf.v0 v0.9.1 // indirect
	gopkg.in/yaml.v2 v2.4.0 // indirect
	gopkg.in/yaml.v3 v3.0.1 // indirect
	k8s.io/component-base v0.27.2 // indirect
	k8s.io/kube-openapi v0.0.0-20230501164219-8b0f38b5fd1f // indirect
	sigs.k8s.io/json v0.0.0-20221116044647-bc3834ca7abd // indirect
	sigs.k8s.io/kustomize/api v0.13.2 // indirect
	sigs.k8s.io/kustomize/kyaml v0.14.1 // indirect
	sigs.k8s.io/structured-merge-diff/v4 v4.2.3 // indirect
)

// To match rules_go version
replace golang.org/x/tools => golang.org/x/tools v0.14.0
